AWSTATS DATA FILE 7.0 (build 1.971)
# If you remove this file, all statistics for date 201302 will be lost/reset.
# Last config file used to build this data file was /home/back/tmp/awstats/awstats.backgroundchecks.org.conf.

# Position (offset in bytes) in this file for beginning of each section for
# direct I/O access. If you made changes somewhere in this file, you should
# also remove completely the MAP section (AWStats will rewrite it at next
# update).
BEGIN_MAP 27
POS_GENERAL 2010                
POS_TIME 2693                
POS_VISITOR 19910               
POS_DAY 31138               
POS_DOMAIN 3559                
POS_LOGIN 4200                
POS_ROBOT 4355                
POS_WORMS 4915                
POS_EMAILSENDER 5046                
POS_EMAILRECEIVER 5189                
POS_SESSION 31914               
POS_SIDER 32117               
POS_FILETYPES 5324                
POS_DOWNLOADS 5560                
POS_OS 5632                
POS_BROWSER 5871                
POS_SCREENSIZE 6937                
POS_UNKNOWNREFERER 7011                
POS_UNKNOWNREFERERBROWSER 8289                
POS_ORIGIN 9072                
POS_SEREFERRALS 9219                
POS_PAGEREFS 9430                
POS_SEARCHWORDS 13976               
POS_KEYWORDS 14477               
POS_MISC 2355                
POS_ERRORS 14900               
POS_CLUSTER 4056                
POS_SIDER_404 15050               
END_MAP

# LastLine    = Date of last record processed - Last record line number in last log - Last record offset in last log - Last record signature value
# FirstTime   = Date of first visit for history file
# LastTime    = Date of last visit for history file
# LastUpdate  = Date of last update - Nb of parsed records - Nb of parsed old records - Nb of parsed new records - Nb of parsed corrupted - Nb of parsed dropped
# TotalVisits = Number of visits
# TotalUnique = Number of unique visitors
# MonthHostsKnown   = Number of hosts known
# MonthHostsUnKnown = Number of hosts unknown
BEGIN_GENERAL 8
LastLine 20130301001731 217 54690 3750953356292
FirstTime 20130201051624
LastTime 20130228221135
LastUpdate 20130301070607 217 0 216 0 0
TotalVisits 538                 
TotalUnique 282                 
MonthHostsKnown 0                   
MonthHostsUnknown 285                 
END_GENERAL

# Misc ID - Pages - Hits - Bandwidth
BEGIN_MISC 10
QuickTimeSupport 0 0 0
JavaEnabled 0 0 0
JavascriptDisabled 0 0 0
PDFSupport 0 0 0
WindowsMediaPlayerSupport 0 0 0
AddToFavourites 0 214 0
RealPlayerSupport 0 0 0
TotalMisc 0 0 0
DirectorSupport 0 0 0
FlashSupport 0 0 0
END_MISC

# Hour - Pages - Hits - Bandwidth - Not viewed Pages - Not viewed Hits - Not viewed Bandwidth
BEGIN_TIME 24
0 16 23 361301 57 80 492146
1 24 55 648121 134 178 774251
2 4 4 60212 40 57 368942
3 7 27 418202 108 124 465065
4 18 35 608503 42 80 507860
5 64 85 739935 118 140 536850
6 21 41 441807 48 65 370287
7 52 66 749547 114 125 513304
8 48 148 2623146 61 131 612214
9 79 203 2347762 110 161 559405
10 42 141 2553118 73 162 647417
11 101 328 4962806 118 219 883171
12 33 98 1626197 67 113 804827
13 666 730 3528211 149 207 896715
14 32 69 1123139 41 72 386281
15 30 67 987967 150 190 973297
16 43 88 1360400 79 111 683884
17 37 71 1051979 3757 3786 7248905
18 83 130 1544358 2603 2643 5564362
19 41 72 1085671 120 149 581065
20 82 131 1323769 42 73 370078
21 49 63 795791 98 120 508139
22 31 80 1027421 53 83 489828
23 28 49 906434 108 125 503732
END_TIME

# Domain - Pages - Hits - Bandwidth
# The 25 first Pages must be first (order not required for others)
BEGIN_DOMAIN 28
gt 607 607 1682938
us 408 1176 17752898
ua 130 130 1929951
ph 114 315 5081886
md 77 77 277092
cn 60 60 882510
it 40 40 125520
il 33 111 1409955
ro 33 38 217679
de 33 37 520934
jp 32 41 806636
fr 14 14 205849
es 10 10 31364
ru 9 12 251357
in 5 17 247690
pk 5 63 330662
hk 4 4 59800
nl 4 4 32520
my 2 9 196926
gb 2 9 196926
ca 2 9 196926
tr 1 1 15053
mx 1 1 14644
dk 1 1 15053
ie 1 8 181873
br 1 1 14641
pl 1 8 181873
lt 1 1 14641
END_DOMAIN

# Cluster ID - Pages - Hits - Bandwidth
BEGIN_CLUSTER 0
END_CLUSTER

# Login - Pages - Hits - Bandwidth - Last visit
# The 10 first Pages must be first (order not required for others)
BEGIN_LOGIN 0
END_LOGIN

# Robot ID - Hits - Bandwidth - Last visit - Hits on robots.txt
# The 25 first Hits must be first (order not required for others)
BEGIN_ROBOT 11
bot[\s_+:,\.\;\/\\-] 4639 15068736 20130228200153 227
spider 210 2691185 20130228200356 27
googlebot 148 1425146 20130228221557 41
robot 122 1252515 20130228131336 27
unknown 78 4602 20130227105351 78
[\s_+:,\.\;\/\\-]bot 65 302430 20130228222513 43
no_user_agent 46 602170 20130228232329 1
crawl 27 274414 20130226232306 8
slurp 9 124484 20130226153644 1
ia_archiver 8 30460 20130217105339 6
netcraft 3 15053 20130206093747 0
END_ROBOT

# Worm ID - Hits - Bandwidth - Last visit
# The 5 first Hits must be first (order not required for others)
BEGIN_WORMS 0
END_WORMS

# EMail - Hits - Bandwidth - Last visit
# The 20 first Hits must be first (order not required for others)
BEGIN_EMAILSENDER 0
END_EMAILSENDER

# EMail - Hits - Bandwidth - Last visit
# The 20 first hits must be first (order not required for others)
BEGIN_EMAILRECEIVER 0
END_EMAILRECEIVER

# Files type - Hits - Bandwidth - Bandwidth without compression - Bandwidth after compression
BEGIN_FILETYPES 9
css 278 4409394 0 0
png 392 2143807 0 0
php 1043 5430288 0 0
html 518 8071660 0 0
xml 3 3156 0 0
js 449 11945378 0 0
jpg 2 89948 0 0
Unknown 67 694476 0 0
gif 52 87690 0 0
END_FILETYPES

# Downloads - Hits - Bandwidth
BEGIN_DOWNLOADS 1
/robots.txt 459 0 27081
END_DOWNLOADS

# OS ID - Hits
BEGIN_OS 18
blackberry 1
linuxandroid 51
winxp 960
winlong 174
win2000 15
winvista 66
win95 3
winunknown 3
win2003 47
java 58
winnt 4
linuxubuntu 3
linux 43
win7 961
bsdfreebsd 1
macosx 192
winme 11
Unknown 211
END_OS

# Browser ID - Hits
BEGIN_BROWSER 69
chrome6.0.427.0 1
msie6.0 136
webcapture 3
firefox3.0.1 2
chrome4.0.221.7 1
firefox18.0 294
lynx 1
chrome23.0.1271.95 8
msie8.0 150
chrome24.0.1312.56 22
msie7.0 133
msie10.6 1
opera9.0 3
docomo 2
opera7.11 3
chrome1.0976.565 1
safari6.0 83
mozilla 34
safari5.0.4 1
firefox14.0.1 19
chrome22.0.1229.94 2
msie9 2
firefox3.6.3 609
chrome25.0.1364.97 97
firefox19.0 26
firefox8.0.1 50
safari 2
firefox15.0.1 6
firefox16.0.1 1
firefox3.0.7 1
android 51
firefox3.5.3 12
opera9.80 6
iphone 8
netscape4.76 3
chrome18.6.872.0 1
firefox6.0.2 2
firefox0.10.1 3
chrome13.0.782.112 1
chrome24.0.1312.57 380
firefox16.0 65
firefox3.6.9 1
msie5.0 3
msie9.0 94
firefox3.6.10 2
Unknown 254
firefox11.0 16
chrome9.0.597.107 1
blackberry 1
firefox3.5.6 1
firefox17.0 23
firefox3.5.1 1
opera8.00 6
safari3.1.2 2
firefox3.6.16 2
opera8.01 2
msie5.5 1
netscape4.79 3
safari5.1.7 16
chrome19.0.1084.15 8
chrome16.0.912.75 1
safari0.8.1 1
firefox1.0 1
msie10.0 24
safari5.1 34
firefox6.0 1
firefox2.0.0.16 1
firefox3.5 1
firefox3.6.13 77
END_BROWSER

# Screen size - Hits
BEGIN_SCREENSIZE 0
END_SCREENSIZE

# Unknown referer OS - Last visit date
BEGIN_UNKNOWNREFERER 19
OpenWebIndex/Nutch-1.6 20130213172638
Zend_Http_Client 20130218162151
YandeG_1.02 20130221084457
binlar_2.6.3_test@mgmt.mic 20130221145028
Mozilla/5.0_(compatible;_SiteExplorer/1.0b;__http://siteexplorer.info/) 20130223123515
Lynx/2.8.5rel.1_libwww-FM/2.15FC_SSL-MM/1.4.1c_OpenSSL/0.9.7e-dev 20130202194418
MSIE9 20130202234101
Mozilla/5.0_(compatible;_Abonti/0.91_-_http://www.abonti.com) 20130210035650
ichiro/3.0_(http://search.goo.ne.jp/option/use/sub4/sub4-1/) 20130210143428
DoCoMo/2.0_P900i(c100;TB;W24H11)_(compatible;_ichiro/mobile_goo;__http://search.goo.ne.jp/option/use/sub4/sub4-1/) 20130222214901
SimplePie/1.2.1-dev_(Feed_Parser;_http://simplepie.org;_Allow_like_Gecko)_Build/20130211164010 20130212064046
statsdone.com 20130212093623
WordPress/3.5;_http://backgroundchecks.org 20130228194815
SiteExplorer/1.0_http://siteexplorer.info/ 20130205204816
Mozilla/5.0_(compatible;_Nmap_Scripting_Engine;_http://nmap.org/book/nse.html) 20130227111131
UnwindFetchor/1.0_(_http://www.gnip.com/) 20130211205600
Mozilla/5.0_(compatible;_Add_Catalog/2.1;) 20130225195152
larbin_2.6.3_larbin2.6.3@unspecified.mail 20130219121650
Spyder_(Mag_Reiting:_http://magic-top.com) 20130225170627
END_UNKNOWNREFERER

# Unknown referer Browser - Last visit date
BEGIN_UNKNOWNREFERERBROWSER 14
OpenWebIndex/Nutch-1.6 20130213172638
Zend_Http_Client 20130218162151
YandeG_1.02 20130221084457
binlar_2.6.3_test@mgmt.mic 20130221145028
ichiro/3.0_(http://search.goo.ne.jp/option/use/sub4/sub4-1/) 20130210143428
SimplePie/1.2.1-dev_(Feed_Parser;_http://simplepie.org;_Allow_like_Gecko)_Build/20130211164010 20130212064046
statsdone.com 20130212093623
Java/1.7.0_07 20130210143526
SiteExplorer/1.0_http://siteexplorer.info/ 20130205204816
WordPress/3.5;_http://backgroundchecks.org 20130228194815
UnwindFetchor/1.0_(_http://www.gnip.com/) 20130211205600
larbin_2.6.3_larbin2.6.3@unspecified.mail 20130219121650
Java/1.6.0_04 20130227133041
Spyder_(Mag_Reiting:_http://magic-top.com) 20130225170627
END_UNKNOWNREFERERBROWSER

# Origin - Pages - Hits 
BEGIN_ORIGIN 6
From0 1119 1144
From1 0 0
From2 34 34
From3 227 227
From4 251 1399
From5 0 0
END_ORIGIN

# Search engine referers ID - Pages - Hits
BEGIN_SEREFERRALS 6
google 29 29
search 1 1
mywebsearch 1 1
aol 1 1
yandex 1 1
ask 1 1
END_SEREFERRALS

# External page referers - Pages - Hits
# The 25 first Pages must be first (order not required for others)
BEGIN_PAGEREFS 116
http://pharmacybiz.ru 6 6
http://sysoliatin.com 6 6
http://www.directorymaximizer.com/apd.php 5 5
HTTP://backdoor-girls.com/wp-login.php 5 5
http://1betonmarket.ru 3 3
http://rusexphone.com 3 3
http://macro-win.com 3 3
http://fengshuiworld.ru 3 3
http://www.taoomart.com 3 3
http://www.briz-nw.ru 3 3
http://aboutcasino.biz 3 3
HTTP://backdispatch.com/wp-login.php 3 3
http://videoerochat.ru 3 3
http://www.spbtalk.ru 3 3
http://body-security.ru 3 3
http://android-superstar.ru 3 3
http://player-android.ru 3 3
http://recepies.su 3 3
http://xn-----blccmbacacdmcn2fet5aou4qhg.xn--p1ai 3 3
http://www.vbesedki.ru 3 3
http://viktoria-center.ru 3 3
http://www.sim-bler.ru 3 3
http://verhdohod.ru 3 3
http://serial-best.com 3 3
http://onlinekinovse.ru 3 3
HTTP://babyseatheater.com/wp-login.php 2 2
HTTP://babysitter4u.com/wp-login.php 1 1
http://www.easyfinance.com/admin/blogPost/view/id/371 1 1
http://terabita.by 2 2
http://ruprava.info 2 2
HTTP://babyyouconsulting.com/wp-login.php 1 1
http://igrikazinoonlain.ru 2 2
HTTP://babyrules.me/wp-login.php 1 1
http://wellbeing-support.com 1 1
HTTP://babyskrimmy.jennythegreat.com/wp-login.php 1 1
http://name911.com/research/backgroundchecks.org 1 1
HTTP://back9pilates.com/wp-login.php 1 1
http://tekarticles.com/article/3-good-android-apps-for-people-search-1027/ 1 1
http://www.ukpensiontransfer.net.au/wp-login.php 1 1
HTTP://backawinner.net/wp-login.php 1 1
HTTP://babblesandbarks.com/wp-login.php 1 1
http://www.vseshmotki.com 2 2
HTTP://backcountryvagabond.com/wp-login.php 1 1
HTTP://babiesnappies.co.uk/wp-login.php 1 1
HTTP://back-in-the-saddle.net/wp-login.php 2 2
HTTP://bacatn.com/wp-login.php 1 1
HTTP://backedbyrealestate.com/wp-login.php 2 2
http://getseo.co.il 2 2
HTTP://twlvton.com/wp-login.php 1 1
HTTP://babyedu.info/wp-login.php 1 1
http://www.savingnspending.com/your-password-is-obsolete/ 2 2
HTTP://babyblessingdress.com/wp-login.php 1 1
HTTP://trilogyacupuncture.com/wp-login.php 1 1
http://fernweh.bachfischer.com/wp-signup.php 2 2
http://static.ak.facebook.com/connect/xd_arbiter.php 1 1
http://naspgn.org 1 1
http://kazinointernet.ru 2 2
http://wegens.ru 2 2
HTTP://twoja-aromaterapia.info/wp-login.php 1 1
http://www.patsbackcountrybeer.com/wp-login.php 1 1
HTTP://trsmoto.com/wp-login.php 1 1
HTTP://backcountrybeer.com/wp-login.php 2 2
HTTP://turbotitle.com/wp-login.php 1 1
HTTP://twofeetshorter.com/wp-login.php 1 1
http://www.savealittlemoney.com/your-password-is-obsolete/ 1 1
HTTP://truth11.com/wp-login.php 1 1
HTTP://babiescantwait.com/wp-login.php 1 1
HTTP://berindonegal.ie/wp-content/themes/berindonegal 2 2
http://popolnit.net 2 2
HTTP://backdropmaker.com/wp-login.php 1 1
HTTP://babytalk.it/wp-login.php 1 1
HTTP://back2basicwellness.com/wp-login.php 2 2
HTTP://bachataorlando.com/wp-login.php 1 1
HTTP://bacaultau.info/wp-login.php 1 1
HTTP://bachpansrnagar.com/wp-login.php 1 1
HTTP://baanburmese.com/wp-comments-post.php 2 2
HTTP://bachelorettepartiesgonewilds.com/wp-login.php 1 1
HTTP://ukglbtfictionmeet.co.uk/wp-login.php 1 1
HTTP://babyprylen.se/wp-login.php 1 1
HTTP://backcoin.com/wp-login.php 2 2
http://candle.ucoz.ua 3 3
http://runetkicom.ru 3 3
http://yourlifesolution.com/howtosavemoney/ 1 1
http://imsu-vinnycja.com 3 3
http://web-betting.ru 3 3
http://www.backwinebar.com/wp-login.php 1 1
HTTP://txcarwrecklawyer.com/wp-login.php 1 1
http://remont-fridge-tv.ru 3 3
HTTP://babyliggett.com/wp-login.php 1 1
HTTP://bachonline.de/wp-login.php 2 2
HTTP://babysec.cl/wp-login.php 1 1
http://tekarticles.com 2 2
HTTP://backcountryflyingbootcamp.com/wp-login.php 1 1
http://regimena.ru 3 3
http://www.tostead.ru 2 2
HTTP://udg-md.com/wp-login.php 1 1
http://newbizshop.com 3 3
http://newbizshop.com/how-to-market-your-new-cell-app-online-3-good-ideas/ 1 1
http://magazin-masterov.ru 3 3
http://5forex.ru 3 3
HTTP://backboneamerica.org/wp-login.php 3 3
http://eroticbeauties.ru 3 3
http://footballway.info 3 3
HTTP://twointhemiddle.com/wp-login.php 1 1
http://ttruonghuu.org/wp-login.php 1 1
http://uk-study.org.uk/wp-login.php 1 1
HTTP://bachecaeventi.com/wp-login.php 1 1
http://google-play-soft.ru 3 3
HTTP://twistedgeeks.com/wp-login.php 1 1
http://www.world-mmo.com 3 3
http://govorim-tomno.ru 3 3
HTTP://back2thefresh.com/wp-login.php 1 1
HTTP://babyonabike.com/wp-login.php 1 1
http://pink4u.com/wp-login.php 1 1
HTTP://ubersuper.net/wp-login.php 1 1
HTTP://bacharachblog.com/wp-login.php 1 1
END_PAGEREFS

# Search keyphrases - Number of search
# The 10 first number of search must be first (order not required for others)
BEGIN_SEARCHWORDS 9
backgroundchecks.org 8
http+%2f%2fbackgroundchecks.org 6
background+checks 6
ttp+%2f%2fwww.napbs.com%2ffiles%2fpublic%2flearn_more%2fwhite_papers%2fcriminalbackgroundchecks.pdf 1
web 1
accu-screen+inc.+adp+the+society+of+human+resource+managers 1
back+ground+checks 1
statistics+on+number+of+people+who+lie+on+their+resume 1
background+checks.org 1
END_SEARCHWORDS

# Search keywords - Number of search
# The 25 first number of search must be first (order not required for others)
BEGIN_KEYWORDS 28
backgroundchecks.org 8
checks 7
background 7
%2f%2fbackgroundchecks.org 6
http 6
of 2
on 2
the 1
human 1
number 1
statistics 1
web 1
who 1
lie 1
checks.org 1
resume 1
ttp 1
back 1
%2f%2fwww.napbs.com%2ffiles%2fpublic%2flearn_more%2fwhite_papers%2fcriminalbackgroundchecks.pdf 1
resource 1
ground 1
adp 1
people 1
inc. 1
their 1
society 1
managers 1
accu-screen 1
END_KEYWORDS

# Errors - Hits - Bandwidth
BEGIN_ERRORS 6
302 2077 0
206 5 176403
405 3 0
400 152 34352
404 481 3719697
301 907 1978
END_ERRORS

# URL with 404 errors - Hits - Last URL referer
BEGIN_SIDER_404 108
/ 12 http://sameid.net/domain/backgroundchecks.org:80/
/admin/phpmyadmin/scripts/setup.php 1 -
/sitemap.xml 2 -
/category/uncategorized/page/2 8 -
/category/uncategorized/page/2/ 3 -
/cgi-bin/register.cgi 1 -
/admin/pma/scripts/setup.php 1 -
/wp-content/plugins/html5avmanager/lib/uploadify/custom.php 1 -
/admin.php 3 -
/wp-content/themes/groovy/images/pattern1.png 136 http://backgroundchecks.org/wp-content/themes/groovy/style.css
/wp-content/plugins/qr-color-code-generator-basic/QR-Color-Code-Generator/uploadify/uploadify.php 1 -
/trafficbasedsspsitemap.xml 2 -
/comments/feed 44 -
/http%3A%2F%2Fbackgroundchecks.org%2Fbackground-check.html 2 -
/hello-world.html 12 -
/wp-content/plugins/1-flash-gallery/js/uploadify/uploadify.php 1 -
/wp-content/plugins/uploadify/includes/process_upload.php 1 -
/register.cgi 1 http://backgroundchecks.org/
/phpmy-admin/ 1 -
/wp-content/plugins/apptivo-business-site/inc/jobs/files/uploadify/uploadify.php 1 -
/sql/ 1 -
/platform.twitter.com/widgets.js 2 -
/wp-includes/js/jquery/,data:n,complete:function(e,t){r&&u.each(r,o||[e.responseText,t,e])}}).done(function(e){o=arguments,u.html(i 2 -
/wp-includes/js/jquery/)) 2 -
/mysqlmanager/ 1 -
/phpmyadmin/ 1 -
/mysql/ 1 -
/wp-content/plugins/motorcycle-inventory/uploadify/uploadify.php 1 -
/register.php 3 http://backgroundchecks.org/
/websql/ 1 -
/wp-content/plugins/wordpress-member-private-conversation/js/uploadify/uploadify.php 1 -
/wp-content/plugins/image-symlinks/uploadify/uploadify.php 1 -
/wp-content/plugins/bulletproof-security/admin/uploadify/uploadify.php 1 -
/register.aspx 1 http://backgroundchecks.org/
/category/uncategorized 15 -
/pma/ 1 -
/phpMyAdmin2/ 1 -
/user/register 1 http://backgroundchecks.org/
/phpmyadmin2/ 1 -
/wp-content/plugins/gpress/gpress-admin/fieldtypes/image_upload/scripts/uploadify.php 1 -
/wp-content/plugins/pods/js/uploadify.php 1 -
/bokeindex.asp 1 -
/cgi-bin/ 6 -
/forum/member/register 1 http://backgroundchecks.org/
/myadmin/ 1 -
/wp-content/plugins/squace-mobile-publishing-plugin-for-wordpress/uploadify.php 1 -
/myadmin/scripts/setup.php 7 -
/wp-content/plugins/uploader/uploadify.php 1 -
/wp-includes/js/jquery/&&!yt.test(e)&&(v.support.htmlSerialize||!wt.test(e))&&(v.support.leadingWhitespace||!pt.test(e))&&!Nt[(vt.exec(e)||[ 2 -
/phpMyAdmin/scripts/setup.php 8 -
/phpMyAdmin-2/ 1 -
/category/uncategorized/feed 1 -
/wp-content/plugins/wpmarketplace/uploadify/uploadify.php 1 -
/YaBB.cgi/ 1 -
/apple-touch-icon.png 7 -
/php-my-admin/ 1 -
/member/register 1 http://backgroundchecks.org/
/w00tw00t.at.blackhats.romanian.anti-sec:) 7 -
/sqlweb/ 1 -
/mysql/scripts/setup.php 1 -
/author 47 -
/reg.asp 3 -
/wp-content/themes/groovy/images/sprite1.png 7 http://backgroundchecks.org/wp-content/themes/groovy/style.css
/index1.htm 1 -
/georgia-auto-insurance-quotes/ 2 -
/MyAdmin/scripts/setup.php 6 -
/login.php 3 -
/sign_up.html 1 http://backgroundchecks.org/
/phpmyadmin/scripts/setup.php 9 -
/member/index_do.php 1 http://backgroundchecks.org/
/CreateUser.asp 1 http://backgroundchecks.org/
/user/soapCaller.bs 1 -
/https:/apis.google.com/js/plusone.js 2 -
/wp-content/plugins/lbg-vp2-html5-bottom/js/uploadify/uploadify.php 1 -
/profile.php 1 http://backgroundchecks.org/profile.php
/PMA/ 1 -
/admin/scripts/setup.php 2 -
/wp-includes/js/jquery/,e):this:v.isFunction(e) 2 -
/south-dakota-auto-insurance-quotes/ 2 -
/missouri-auto-insurance-quotes/ 1 -
/wp-content/plugins/kish-multi/uploadify/scripts/uploadify.php 1 -
/wp-content/plugins/annonces/includes/lib/uploadify/uploadify.php 1 -
/account/register.php 1 http://backgroundchecks.org/
/wp-content/plugins/wp-property/third-party/uploadify/uploadify.php 1 -
/forums/member/register 1 http://backgroundchecks.org/index.php/forums/member/register
/registration_rules.asp 1 http://backgroundchecks.org/registration_rules.asp
/wp-content/plugins/nmedia-user-file-uploader/js/uploadify/uploadify.php 1 -
/sqlmanager/ 1 -
/member.php 2 http://backgroundchecks.org/
/category/background/apple-touch-icon.png 2 -
/php-myadmin/ 1 -
/join.php 1 -
/anony/mjpg.cgi 1 -
/category/uncategorized/ 13 -
/p/m/a/ 1 -
/pma/scripts/setup.php 8 -
/YaBB.pl/ 1 -
/signup 1 http://backgroundchecks.org/
/wp-content/themes/groovy/images/time2.png 7 http://backgroundchecks.org/wp-content/themes/groovy/style.css
/cgi-bin/release-msg.cgi 1 -
/manager/status 3 -
/manager/html 5 -
/signup.php 3 http://backgroundchecks.org/
/logging.php 1 http://backgroundchecks.org/
/maryland-auto-insurance-quotes/ 1 -
/phpMyAdmin/ 1 -
/ucp.php 1 http://backgroundchecks.org/
/dbadmin/ 1 -
END_SIDER_404

# Host - Pages - Hits - Bandwidth - Last visit date - [Start date of last visit] - [Last page of last visit]
# [Start date of last visit] and [Last page of last visit] are saved only if session is not finished
# The 25 first Hits must be first (order not required for others)
BEGIN_VISITOR 285
190.4.35.106 607 607 1682938 20130214134818
50.28.73.148 144 144 0 20130228194815
112.207.162.204 87 247 3755384 20130205111839
89.123.44.148 33 38 217679 20130211202937
5.248.83.93 33 33 496749 20130228011424
91.207.4.186 30 30 451590 20130228204426
112.210.48.139 27 68 1326502 20130228085230
79.181.216.65 19 97 1249505 20130206030940
173.193.205.248 18 18 244812 20130223123515
120.33.243.219 18 18 270954 20130222183714
178.137.5.24 18 18 270954 20130226153057
50.22.199.170 15 15 191781 20130216233128
50.74.168.106 14 19 215722 20130227133041
50.40.190.117 14 24 357488 20130225183123
82.80.249.139 14 14 160450 20130221124057
218.17.156.228 10 10 135849 20130225052851
80.35.80.139 10 10 31364 20130219055238
78.6.228.32 10 10 31380 20130224134052
79.28.255.65 10 10 31380 20130224134107
80.241.208.27 9 13 197170 20130223184259
91.207.9.226 9 9 135477 20130228221135
193.106.136.32 8 8 120424 20130228155308
69.58.178.58 8 8 113289 20130202011850
119.63.193.130 8 8 120424 20130226153935
71.57.70.219 8 46 954524 20130215010906
182.185.11.118 1 14 125471 20130203101338
108.62.194.179 1 1 14641 20130205051914
96.252.135.128 1 8 181873 20130210143140
176.123.0.122 1 1 3138 20130217210820
202.46.51.42 1 1 15053 20130226193849
85.221.170.253 1 8 181873 20130215081134
176.123.0.97 2 2 6276 20130217211315
68.58.86.59 1 8 181873 20130218210027
202.46.63.70 1 1 15053 20130207214033
182.181.134.53 0 3 1453 
108.206.120.72 1 14 155459 20130202204846
176.213.146.164 1 1 2414 20130205194506
176.123.0.115 1 1 3138 20130218144327
202.46.53.36 1 1 15053 20130206173913
202.46.59.70 1 1 15053 20130223173905
176.123.0.91 2 2 6276 20130217203454
94.153.65.154 3 3 45159 20130227164946
37.75.160.24 1 1 15053 20130210035650
5.135.125.177 4 4 67078 20130203000534
108.62.194.233 1 1 15053 20130227071641
72.233.72.155 2 2 30106 20130227141723
176.123.0.47 2 2 6276 20130217200105
176.123.0.42 2 2 6276 20130217201750
202.46.49.74 1 1 14641 20130201073848
202.46.62.34 1 1 14641 20130203053932
176.123.0.109 2 2 6276 20130217210251
202.46.51.49 1 1 15053 20130221073836
89.108.102.171 4 4 60212 20130228005446
216.238.126.78 1 1 15053 20130220071456
150.70.75.30 2 4 44434 20130219110455
68.57.255.24 4 13 229341 20130228081113
205.178.190.236 4 18 378799 20130217044513
182.185.93.87 1 4 14641 20130202085134
108.61.95.36 2 2 41316 20130220095341
38.111.147.83 1 1 15053 20130227110947
77.43.9.164 5 5 15690 20130224134209
70.171.87.56 1 8 181873 20130223114157
108.242.229.179 1 8 181873 20130223132912
150.70.64.211 1 5 131312 20130205202826
85.25.110.112 1 1 15053 20130211054115
176.123.0.104 2 2 6276 20130217202513
202.46.48.19 1 1 15053 20130219133841
202.46.53.63 1 1 15053 20130218053854
176.123.0.98 2 2 6276 20130217202524
202.46.62.92 1 1 15053 20130211094038
193.106.136.36 2 2 30106 20130224022135
206.225.83.83 1 1 15053 20130223221603
182.181.131.8 1 14 125471 20130203013126
182.181.149.185 1 14 31813 20130201152423
103.245.44.11 2 2 30106 20130221145028
75.130.55.106 1 8 181873 20130226104553
74.130.16.167 1 8 181873 20130211122012
199.188.204.158 2 2 29282 20130202091917
85.10.207.131 1 1 15053 20130216092142
176.123.0.40 2 2 6276 20130217194631
96.9.155.55 1 1 20658 20130213170846
98.21.111.144 1 13 331453 20130220170108
92.198.130.190 1 1 15053 20130219121650
67.49.98.29 2 9 196926 20130219065053
193.106.136.45 2 2 30106 20130222215350
46.223.250.66 1 1 14641 20130202152616
66.87.81.223 2 13 478686 20130216162400
176.123.0.105 2 2 6276 20130217202410
218.213.130.110 1 1 15053 20130210143428
202.46.49.11 1 1 15053 20130215213942
176.9.146.6 1 1 15053 20130227111131
96.4.30.124 4 13 217779 20130206151849
188.40.244.57 2 2 41316 20130212214248
91.231.40.53 1 1 15053 20130225191756
176.34.138.250 1 8 181873 20130214160948
50.57.190.113 1 1 15053 20130206151527
198.58.81.202 2 2 29282 20130202085158
218.213.137.45 2 2 30106 20130222214901
99.115.174.6 1 8 181873 20130207100320
174.120.6.2 2 2 30106 20130223052358
176.123.0.94 2 2 6276 20130217211730
70.89.176.182 1 10 193873 20130205143516
176.123.0.43 2 2 6276 20130217215258
131.253.24.54 1 2 43875 20130222234635
176.123.0.111 2 2 6276 20130217204506
67.172.219.38 3 12 208108 20130206092846
65.55.210.245 1 7 165419 20130217231720
166.137.156.16 5 12 242085 20130211191745
202.46.57.68 1 1 15053 20130221233811
70.199.2.201 1 8 181873 20130209111707
38.97.5.251 1 8 181873 20130214121945
76.3.204.173 2 9 196926 20130220111620
130.185.109.154 1 1 15053 20130218090607
178.32.226.1 1 1 15053 20130208162108
174.77.209.68 4 19 216969 20130218143138
71.207.167.87 1 8 181873 20130205131520
70.193.68.168 1 14 155459 20130201063808
66.90.103.217 2 2 24017 20130211071538
176.123.0.108 2 2 6276 20130217204131
193.105.210.217 1 1 15053 20130209184202
71.194.140.135 1 8 181873 20130213205454
4.28.12.34 1 8 181873 20130212181844
98.196.113.12 1 8 181873 20130221081353
78.158.11.226 1 1 14641 20130202194418
202.46.55.23 1 1 15053 20130220173846
204.235.114.165 1 8 181873 20130221123032
68.150.210.201 1 8 181873 20130227121602
46.229.167.149 2 2 30106 20130218162152
90.203.179.138 1 8 181873 20130216102120
119.63.193.132 7 7 104959 20130220214030
109.120.157.179 2 2 30106 20130225195152
71.63.109.130 1 10 193873 20130221122155
176.123.0.107 2 2 6276 20130217204001
176.31.14.28 3 3 45599 20130221143135
117.197.246.3 2 14 196926 20130205112900
68.37.145.65 1 8 181873 20130210221405
94.153.64.117 6 6 90318 20130228153042
176.123.0.99 2 2 6276 20130217202718
113.212.69.176 1 1 20658 20130227032349
184.58.189.157 4 18 393852 20130226073808
176.123.0.119 1 1 3138 20130217210054
98.194.62.17 1 8 181873 20130217235118
50.151.24.157 1 8 181873 20130208104508
176.123.0.48 2 2 6276 20130217200813
176.123.0.102 1 1 3138 20130205175952
12.238.159.13 1 14 155459 20130202135936
42.98.184.184 1 1 14641 20130201212002
209.59.178.28 1 1 20658 20130217192342
74.142.135.173 1 8 181873 20130206160349
204.75.125.135 1 8 181873 20130207095434
202.46.61.22 1 1 15053 20130216233752
176.123.0.92 2 2 6276 20130217204027
202.46.57.67 1 1 15053 20130224133906
24.125.252.222 1 8 181873 20130224222142
202.46.51.44 1 1 15053 20130220214024
50.57.68.9 2 2 19559 20130206184325
202.46.53.34 2 2 30106 20130215073813
205.178.190.237 2 10 183396 20130217050603
37.1.30.129 1 1 15053 20130210142534
131.253.24.69 1 2 43875 20130223045831
5.9.16.104 1 1 15053 20130206220845
199.195.254.227 3 3 44675 20130212064047
201.87.53.165 1 1 14641 20130202175123
213.239.200.116 1 1 15053 20130221084457
217.23.11.129 1 1 2414 20130207105725
176.123.0.112 2 2 6276 20130217204638
176.9.111.204 1 1 15053 20130208152110
189.139.138.163 1 1 14644 20130202234101
96.227.124.37 1 1 15053 20130215024509
176.123.0.44 2 2 6276 20130217210302
108.62.228.52 1 1 15053 20130223054450
72.213.185.57 1 8 181873 20130221173407
184.17.158.194 2 2 29282 20130203140150
98.234.68.60 1 10 193873 20130212194720
37.57.25.225 1 1 2414 20130224192726
50.57.120.161 1 8 181873 20130215111705
119.63.193.195 2 2 30106 20130227033951
176.123.0.93 2 2 6276 20130217205025
98.206.188.67 2 17 170100 20130204175736
216.70.81.86 2 2 0 20130222234810
202.46.49.12 1 1 15053 20130224233820
202.46.52.27 1 1 15053 20130227033947
174.37.137.143 2 17 213672 20130212015444
8.21.4.254 1 1 15053 20130207095433
202.46.52.26 1 1 15053 20130226233924
23.22.209.58 2 2 41316 20130226072052
75.144.8.205 1 8 181873 20130228111106
202.46.53.37 1 1 15053 20130207094049
176.123.0.49 2 2 6276 20130217202724
71.176.253.226 4 32 227032 20130225224215
67.221.59.158 1 1 15053 20130227044411
119.63.193.194 3 3 45159 20130228013923
176.123.0.118 1 1 3138 20130218144656
176.123.0.117 1 1 3138 20130217210103
79.14.124.159 5 5 15690 20130213074225
131.96.42.148 4 13 217767 20130226102644
176.123.0.100 2 2 6276 20130217204021
119.63.193.131 5 5 75265 20130220173850
176.123.0.95 2 2 6276 20130217204132
95.227.198.80 5 5 15690 20130210213417
98.246.249.165 1 14 155459 20130202201112
184.35.24.188 1 8 181873 20130205202627
5.61.36.65 1 1 15053 20130212093623
67.8.201.236 3 17 214288 20130219092951
176.123.0.106 2 2 6276 20130217201350
75.74.168.170 3 22 193044 20130204111640
173.234.141.209 1 1 15053 20130216070419
24.239.113.126 1 8 181873 20130219195141
176.28.49.140 5 5 56781 20130213090912
202.46.48.13 1 1 15053 20130215173928
150.70.172.111 0 1 93658 
188.121.41.32 1 1 0 20130208224527
80.76.89.37 5 5 15690 20130219055050
176.123.0.45 2 2 6276 20130217200427
202.188.66.34 2 9 196926 20130210220224
202.46.56.48 1 1 15053 20130205153830
176.123.0.113 2 2 6276 20130217211640
173.198.192.111 2 2 30106 20130208162110
66.96.207.85 1 1 15053 20130222160036
176.123.0.101 2 2 6276 20130217201639
202.46.55.36 1 1 15053 20130209173959
50.18.21.225 4 4 0 20130211205600
108.62.18.133 1 1 15053 20130212052613
178.137.92.96 3 3 45159 20130228204449
70.88.107.81 1 14 155459 20130205100059
176.123.0.96 2 2 6276 20130217203535
74.52.245.146 1 1 15053 20130209190853
208.87.233.180 5 14 244394 20130215134105
88.253.27.147 1 1 15053 20130219142940
67.159.44.55 1 1 15053 20130207175941
107.23.240.212 4 4 60212 20130222041208
203.91.43.43 1 1 15053 20130215200252
67.82.41.211 1 14 155459 20130204161147
61.167.60.250 2 2 24941 20130227080807
98.64.190.3 2 9 196926 20130208192916
202.46.51.41 1 1 15053 20130218233832
176.123.0.46 2 2 6276 20130217202352
176.123.0.121 1 1 3138 20130218142930
91.231.40.27 2 2 15806 20130209172106
37.146.78.40 1 4 143572 20130203095834
91.250.82.105 1 1 698 20130213172638
192.35.222.182 2 2 29694 20130206075014
176.123.0.114 1 1 3138 20130205175937
202.46.55.21 1 1 15053 20130228013920
178.63.16.210 1 1 14641 20130204112414
71.81.115.76 6 34 406718 20130213184920
150.70.75.37 0 2 101519 
178.33.178.13 4 4 48013 20130208210256
192.162.19.177 6 6 90318 20130225170627
67.165.193.18 4 13 224176 20130221095200
5.9.186.239 2 2 41316 20130222054030
38.115.185.130 1 8 181873 20130219110146
91.250.82.108 3 3 18894 20130213002603
67.142.181.25 3 46 488303 20130205092444
24.197.231.78 1 9 210695 20130219152855
174.28.103.146 2 16 363746 20130223081114
5.135.156.69 2 2 30106 20130206154439
96.38.36.131 1 8 181873 20130226222526
107.21.23.253 2 2 30106 20130211044853
176.123.0.103 2 2 6276 20130217205020
202.46.59.48 1 1 15053 20130208214126
119.63.193.196 4 4 59800 20130226233927
24.173.197.5 1 8 181873 20130211123142
50.57.104.33 1 1 15053 20130206184349
195.242.218.133 3 3 45159 20130224182814
178.137.82.40 1 1 15053 20130211033547
176.123.0.110 2 2 6276 20130217204507
176.123.3.39 4 4 48034 20130218143422
198.27.74.12 1 1 15053 20130219005911
98.199.144.37 1 8 181873 20130227084252
176.123.0.41 2 2 6260 20130217190323
176.123.0.116 1 1 3138 20130218000923
173.203.60.237 1 1 15053 20130218115548
151.193.220.27 1 8 181873 20130222114712
70.243.122.98 1 2 43875 20130219192237
108.56.146.154 1 8 181873 20130220151914
66.99.149.248 5 26 242085 20130225122606
182.181.144.232 1 14 31813 20130201084229
202.46.60.65 1 1 15053 20130226153930
216.238.126.63 1 1 15053 20130209070029
71.195.218.130 1 8 181873 20130215233655
95.114.191.66 1 1 15053 20130210143526
166.147.88.15 1 8 181873 20130217133630
91.231.40.52 1 1 15053 20130225103132
204.197.174.2 1 10 193873 20130213105014
END_VISITOR

# Date - Pages - Hits - Bandwidth - Visits
BEGIN_DAY 28
20130201 11 50 263008 11
20130202 35 78 935085 19
20130203 19 69 854355 15
20130204 45 143 1501203 15
20130205 142 399 5541381 46
20130206 35 67 987964 28
20130207 17 31 456478 15
20130208 24 38 532820 15
20130209 14 21 287997 13
20130210 24 52 834137 15
20130211 57 90 1129606 18
20130212 18 56 902441 14
20130213 34 85 1092748 15
20130214 614 628 2046684 8
20130215 24 64 1122416 18
20130216 16 34 753514 13
20130217 52 94 1245865 47
20130218 31 53 609052 20
20130219 31 79 1282524 20
20130220 16 42 826833 14
20130221 28 67 1159328 18
20130222 42 57 932395 17
20130223 45 78 1359915 20
20130224 48 55 622735 22
20130225 53 112 1208535 18
20130226 45 75 1271345 26
20130227 38 57 835809 19
20130228 73 130 2279624 19
END_DAY

# Session range - Number of visits
BEGIN_SESSION 6
5mn-15mn 10
15mn-30mn 5
30s-2mn 17
2mn-5mn 6
0s-30s 495
30mn-1h 5
END_SESSION

# URL - Pages - Bandwidth - Entry - Exit
# The 25 first Pages must be first (order not required for others)
BEGIN_SIDER 64
/wp-login.php 754 2125751 98 91
/ 462 6791880 278 264
/wp-cron.php 144 0 140 140
/background-check.html 37 742332 14 17
/wp-admin/load-scripts.php 30 1261810 0 0
/category/background 27 257088 4 6
/wp-admin/admin-ajax.php 27 22270 0 1
/wp-admin/load-styles.php 11 242713 0 0
/2013/01 9 87039 1 3
/feed 8 71712 0 4
/criminal-background-check.html 7 132489 0 1
/category/uncategorized 6 88728 0 1
/wp-admin/users.php 6 275242 0 1
/page/2 6 87235 0 1
/wp-admin/ 6 350873 0 0
/xmlrpc.php 6 1674 1 0
/category/uncategorized/page/2 5 73625 0 2
/wp-admin/edit.php 5 210882 0 0
/wp-admin/async-upload.php 4 12960 0 0
/wp-admin/update.php 4 87478 0 0
/wp-admin/admin.php 4 148160 0 0
/wp-includes/wlwmanifest.xml 3 3156 0 0
/category/background/feed 3 26955 0 1
/background-check.html/feed 3 2094 1 1
/wp-admin/media-upload.php 3 16063 0 0
/wp-includes/bookmark.php 1 0 0 0
/wp-admin/post-new.php 1 73986 0 0
/wp-includes/author-template.php 1 158 0 0
/wp-includes/class-IXR.php 1 0 0 0
/wp-includes/class-feed.php 1 551 0 0
/wp-admin/user-new.php 1 24556 0 0
/wp-admin/post.php 2 176403 0 0
/wp-admin/plugins.php 2 75491 0 0
/wp-includes/atomlib.php 2 0 0 1
/wp-includes/category.php 1 0 0 0
/wp-includes/class-pop3.php 1 0 0 0
/wp-includes/class-snoopy.php 1 159 0 1
/wp-includes/admin-bar.php 2 302 0 0
/wp-admin/widgets.php 1 82131 0 0
//index.php 1 15053 1 1
/wp-includes/class-simplepie.php 1 792 0 0
/wp-includes/js/tinymce/wp-tinymce.php 1 115683 0 0
/wp-includes/canonical.php 1 152 0 0
/wp-includes/class-oembed.php 1 0 0 0
/wp-includes/category-template.php 1 145 0 0
/wp-includes/capabilities.php 1 0 0 0
/wp-includes/js/jquery/ 2 6614 0 0
/wp-includes/ 2 29238 0 0
/wp-includes/class-phpass.php 1 0 0 0
/wp-admin/options-reading.php 2 49697 0 0
/wp-includes/class-http.php 1 0 0 0
/wp-admin/theme-install.php 2 60696 0 0
/wp-admin/theme-editor.php 1 54895 0 0
/wp-admin/edit-tags.php 1 34487 0 0
/wp-admin/plugin-install.php 2 100724 0 0
/wp-includes/cache.php 1 0 0 0
/wp-includes/bookmark-template.php 1 0 0 0
/wp-includes/class-json.php 1 0 0 0
/wp-includes/js/ 2 18234 0 0
/index.php 1 15053 0 0
/wp-admin/themes.php 2 83493 0 0
/wp-includes/class-smtp.php 1 0 0 0
/wp-includes/class-phpmailer.php 1 0 0 0
/wp-admin/options-general.php 2 60678 0 1
END_SIDER
